Babel (2.4.0)
Boruta (0.1.5)
Bottleneck (1.2.1)
CVXcanon (0.1.1)
Cartopy (0.15.0)
Cython (0.25.2)
Delorean (0.6.0)
Fiona (1.7.10.post1)
Flask (0.12.2)
Flask-Cors (3.0.2)
Geohash (1.0)
HeapDict (1.0.0)
ImageHash (3.7)
Jinja2 (2.9.6)
Keras (2.0.6)
Lasagne (0.2.dev1)
Markdown (2.6.9)
MarkupSafe (0.23)
Pillow (4.1.1)
PyAstronomy (0.11.1)
PyBrain (0.3.3)
PyOpenGL (3.1.0)
PyPrind (2.11.1)
PySAL (1.14.3)
PyWavelets (0.5.2)
PyYAML (3.12)
Pygments (2.2.0)
QtAwesome (0.4.4)
QtPy (1.2.1)
SQLAlchemy (1.1.9)
SexMachine (0.1.1)
Shapely (1.6.2)
SimpleITK (1.0.1)
Sphinx (1.5.6)
TPOT (0.9.1)
Theano (0.9.0)
Werkzeug (0.12.2)
XlsxWriter (0.9.6)
alabaster (0.7.10)
algopy (0.5.5)
altair (1.2.1)
anaconda-client (1.6.3)
anaconda-navigator (1.6.2)
anaconda-project (0.6.0)
arrow (0.10.0)
asn1crypto (0.22.0)
astroid (1.4.9)
astropy (1.3.2)
attrs (17.3.0)
audioread (2.1.5)
backports.shutil-get-terminal-size (1.0.0)
basemap (1.1.0)
bayesian-optimization (0.5.0)
bayespy (0.5.12)
beautifulsoup4 (4.6.0)
biopython (1.70)
bitarray (0.8.1)
blaze (0.10.1)
bleach (1.5.0)
blist (1.3.6)
bokeh (0.12.5)
boto (2.46.1)
1.4s
2
branca (0.2.0)
brewer2mpl (1.4.1)
bz2file (0.98)
catboost (0.3.1)
cffi (1.10.0)
chainer (3.1.0)
chardet (3.0.3)
cleverhans (1.0.0)
click (6.7)
click-plugins (1.0.3)
cligj (0.4.0)
climate (0.4.6)
cloudpickle (0.2.2)
clyent (1.2.2)
colorama (0.3.9)
colorcet (1.0.0)
conda (4.3.29)
contextlib2 (0.5.5)
cryptography (1.8.1)
cvxpy (0.4.11)
cycler (0.10.0)
cymem (1.31.2)
cytoolz (0.8.2)
dask (0.16.0)
datashader (0.6.2)
datashape (0.5.4)
deap (1.2.2)
decorator (4.0.11)
deepdish (0.3.6)
descartes (1.1.0)
dill (0.2.6)
dipy (0.13.0)
distributed (1.16.3)
docopt (0.6.2)
docutils (0.13.1)
dora (0.1)
downhill (0.4.0)
ecos (2.0.5)
edward (1.3.4)
eli5 (0.8)
en-core-web-sm (2.0.0)
entrypoints (0.2.2)
enum34 (1.1.6)
et-xmlfile (1.0.1)
ethnicolr (0.1.3)
fancyimpute (0.2.0)
fastFM (0.2.10)
fastcache (1.0.2)
fbprophet (0.2.1)
filelock (2.0.13)
fitter (1.0.8)
folium (0.5.0)
ftfy (4.4.2)
funcy (1.10)
future (0.16.0)
fuzzywuzzy (0.15.1)
gdbn (0.1)
gensim (3.1.0)
geojson (2.3.0)
geopandas (0.3.0)
geoplot (0.1.1)
geopy (1.11.0)
geoviews (1.4.2)
gevent (1.2.1)
ggplot (0.11.5)
gnumpy (0.2)
gplearn (0.2)
gpxpy (1.1.2)
graphviz (0.8.1)
greenlet (0.4.12)
h2o (3.14.0.7)
h5py (2.7.0)
hallucinate (0.0.1)
haversine (0.4.5)
heamy (0.0.7)
hep-ml (0.5.0)
hmmlearn (0.2.0)
holoviews (1.9.1)
html5lib (0.9999999)
humanize (0.5.1)
husl (4.0.3)
hyperopt (0.1)
hypertools (0.4.1)
ibis-framework (0.12.0)
idna (2.5)
imagesize (0.7.1)
imbalanced-learn (0.4.0.dev0)
implicit (0.2.7)
ipykernel (4.6.1)
ipython (5.3.0)
ipython-genutils (0.2.0)
ipywidgets (6.0.0)
iso3166 (0.8)
isort (4.2.5)
itsdangerous (0.24)
jdcal (1.3)
jedi (0.10.2)
joblib (0.11)
jsonpickle (0.9.5)
jsonschema (2.6.0)
jupyter (1.0.0)
jupyter-client (5.0.1)
jupyter-console (5.1.0)
jupyter-core (4.3.0)
keras-rl (0.3.1)
kmeans-smote (0.0.1)
kmodes (0.8)
knnimpute (0.1.0)
lancet-ioam (0.9.0)
langid (1.1.6)
lazy-object-proxy (1.2.2)
leven (1.0.4)
librosa (0.5.1)
lightfm (1.14)
lightgbm (2.0.10)
line-profiler (2.0)
llvmlite (0.20.0)
lml (0.0.1)
locket (0.2.0)
lxml (3.7.3)
matplotlib (2.1.0)
matplotlib-venn (0.11.5)
missingno (0.3.7)
mistune (0.7.4)
mizani (0.4.2)
ml-metrics (0.1.4)
mlbox (0.5.3)
mlens (0.2.1)
mlxtend (0.9.1)
mne (0.15)
mpld3 (0.3)
mplleaflet (0.0.5)
mpmath (0.19)
msgpack-numpy (0.4.1)
msgpack-python (0.4.8)
multipledispatch (0.4.9)
multiprocess (0.70.5)
munch (2.2.0)
murmurhash (0.28.0)
mxnet (0.12.1)
navigator-updater (0.1.0)
nbconvert (5.1.1)
nbformat (4.3.0)
networkx (1.11)
nibabel (2.2.0)
nltk (3.2.3)
nolearn (0.6.1.dev0)
nose (1.3.7)
notebook (5.0.0)
numba (0.35.0)
numdifftools (0.9.20)
numexpr (2.6.2)
numpy (1.13.0)
numpydoc (0.6.0)
odfpy (1.3.5)
odo (0.5.0)
olefile (0.44)
openpyxl (2.4.7)
orderedmultidict (0.7.11)
packaging (16.8)
palettable (3.1.0)
pandas (0.20.3)
pandas-profiling (1.4.0)
pandocfilters (1.4.1)
param (1.5.1)
paramnb (2.0.2)
partd (0.3.8)
pathlib (1.0.1)
pathlib2 (2.2.1)
patsy (0.4.1)
pep8 (1.7.0)
pexpect (4.2.1)
pickleshare (0.7.4)
pip (9.0.1)
plac (0.9.6)
plotly (2.2.1)
plotnine (0.3.0)
ply (3.10)
ppca (0.0.2)
preshed (1.0.0)
prompt-toolkit (1.0.14)
protobuf (3.5.0)
psutil (5.2.2)
ptyprocess (0.5.1)
pudb (2017.1.4)
py (1.4.33)
py-earth (0+untagged.491.gbc830fb)
py-stringmatching (0.4.0)
py-stringsimjoin (0.2.0)
pyLDAvis (2.1.1)
pyOpenSSL (17.0.0)
pycairo (1.13.3)
pycodestyle (2.3.1)
pycosat (0.6.2)
pycountry (17.9.23)
pycparser (2.17)
pycrypto (2.6.1)
pycurl (7.43.0)
pydash (4.2.1)
pydicom (0.9.9)
pyeconometrics (1.0.2)
pyexcel-io (0.5.4)
pyexcel-ods (0.5.2)
pyflakes (1.5.0)
pyflux (0.4.15)
pylint (1.6.4)
pymc3 (3.2)
pymongo (3.5.1)
pyodbc (4.0.16)
pyparsing (2.1.4)
pyproj (1.9.5.1)
pyshp (1.2.12)
pystan (2.17.0.0)
pytagcloud (0.3.5)
pytest (3.0.7)
python-Levenshtein (0.12.0)
python-dateutil (2.6.0)
python-igraph (0.7.1.post6)
python-louvain (0.9)
pytz (2017.2)
pyzmq (16.0.2)
qtconsole (4.3.0)
raccoon (2.1.4)
regex (2017.4.5)
requests (2.14.2)
resampy (0.2.0)
revrand (0.6.5)
rgf-python (2.1.1)
rope-py3k (0.9.4.post1)
s2sphere (0.2.5)
sacred (0.7.2)
scikit-image (0.13.0)
scikit-learn (0.19.0)
scikit-multilearn (0.0.5)
scikit-plot (0.3.3)
scikit-surprise (1.0.4)
scipy (1.0.0)
scs (1.2.7)
seaborn (0.8.1)
setuptools (36.7.2)
simplegeneric (0.8.1)
singledispatch (3.4.0.3)
six (1.10.0)
sklearn (0.0)
sklearn-pandas (1.6.0)
smart-open (1.5.3)
smhasher (0.150.1)
snowballstemmer (1.2.1)
sortedcollections (0.5.3)
sortedcontainers (1.5.7)
spacy (2.0.2)
spectral (0.19)
speedml (0.9.3)
spyder (3.1.4)
squarify (0.3.0)
statsmodels (0.8.0)
stemming (1.0.1)
stop-words (2015.2.23.1)
stopit (1.1.1)
sympy (1.0)
tables (3.4.2)
tabulate (0.8.1)
tblib (1.3.2)
tensorflow (1.4.0)
tensorflow-tensorboard (0.4.0rc3)
tensorpack (0.7.1)
termcolor (1.1.0)
terminado (0.6)
terminalplot (0.2.6)
testpath (0.3)
textblob (0.13.1)
tflearn (0.3.2)
thinc (6.10.0)
tifffile (0.12.1)
toolz (0.8.2)
torch (0.2.0.post4)
torchaudio (0.1)
torchvision (0.1.9)
tornado (4.5.1)
tqdm (4.19.4)
traitlets (4.3.2)
trueskill (0.4.4)
typing (3.6.2)
tzlocal (1.4)
ujson (1.35)
unicodecsv (0.14.1)
update-checker (0.16)
urwid (1.3.1)
vega (0.4.4)
vida (0.3)
visvis (1.10.0)
vowpalwabbit (8.3.2)
wavio (0.0.3)
wcwidth (0.1.7)
wheel (0.29.0)
widgetsnbextension (2.0.0)
wordcloud (1.3.1)
wrapt (1.10.10)
xarray (0.9.6)
xgboost (0.6)
xlrd (1.0.0)
xlwt (1.2.0)
zict (0.1.2)